{
  "extends": "tslint-config-standard",
  "rulesDirectory": [
    "node_modules/tslint-lines-between-class-members",
    "node_modules/tslint-plugin-prettier"
  ],
  "rules": {
    "lines-between-class-members": true,
    "no-use-before-declare": false,
    "await-promise": false,
    "no-floating-promises": false,
    "ordered-imports": false,
    "member-access": false,
    "indent": [true, "spaces", 2],
    "trailing-comma": [true],
    "no-empty": false,
    "semicolon": [true, "always", "ignore-bound-class-methods"],
    "space-before-function-paren": [false],
    "quotemark": [true, "single", "jsx-double"],
    "object-literal-sort-keys": false,
    "object-literal-key-quotes": false,
    "no-string-literal": false,
    "return-undefined": false,
    "no-unnecessary-qualifier": false,
    "strict-type-predicates": false
  }
}
